%YAML 1.1
%TAG !u! tag:unity3d.com,2011:
--- !u!114 &11400000
MonoBehaviour:
  m_ObjectHideFlags: 0
  m_CorrespondingSourceObject: {fileID: 0}
  m_PrefabInstance: {fileID: 0}
  m_PrefabAsset: {fileID: 0}
  m_GameObject: {fileID: 0}
  m_Enabled: 1
  m_EditorHideFlags: 0
  m_Script: {fileID: 11500000, guid: c5dc6113dad57f64b9e4fe10302be0c5, type: 3}
  m_Name: HighHealing
  m_EditorClassIdentifier: 
  m_Id: High Healing
  m_Description: Heals high
  m_Sprite: {fileID: 1944521762, guid: 4b24cb9e14c7eee4e8c444e05b897987, type: 3}
  m_PotionType: 0
  m_Healing: 40
