%YAML 1.1
%TAG !u! tag:unity3d.com,2011:
--- !u!114 &11400000
MonoBehaviour:
  m_ObjectHideFlags: 0
  m_CorrespondingSourceObject: {fileID: 0}
  m_PrefabInstance: {fileID: 0}
  m_PrefabAsset: {fileID: 0}
  m_GameObject: {fileID: 0}
  m_Enabled: 1
  m_EditorHideFlags: 0
  m_Script: {fileID: 11500000, guid: 57ecaa56a3538da46a7bfae418e1a312, type: 3}
  m_Name: HighDmgSword
  m_EditorClassIdentifier: 
  m_Id: HighDmgSword
  m_Description: Dios
  m_Sprite: {fileID: 592603977, guid: 4b24cb9e14c7eee4e8c444e05b897987, type: 3}
  m_GunType: 0
  damage: 4
