%YAML 1.1
%TAG !u! tag:unity3d.com,2011:
--- !u!114 &11400000
MonoBehaviour:
  m_ObjectHideFlags: 0
  m_CorrespondingSourceObject: {fileID: 0}
  m_PrefabInstance: {fileID: 0}
  m_PrefabAsset: {fileID: 0}
  m_GameObject: {fileID: 0}
  m_Enabled: 1
  m_EditorHideFlags: 0
  m_Script: {fileID: 11500000, guid: 651adc1a87758a545b5172f4c6e5e8dc, type: 3}
  m_Name: Player2
  m_EditorClassIdentifier: 
  level: 1
  experience: 0
  speed: 2
  force: 4
  mana: 100
  hp: 100
  maxhp: 100
  maxMana: 100
