%YAML 1.1
%TAG !u! tag:unity3d.com,2011:
--- !u!1 &4314654288599744807
GameObject:
  m_ObjectHideFlags: 0
  m_CorrespondingSourceObject: {fileID: 0}
  m_PrefabInstance: {fileID: 0}
  m_PrefabAsset: {fileID: 0}
  serializedVersion: 6
  m_Component:
  - component: {fileID: 2754484423639054065}
  - component: {fileID: 8696828161666933252}
  m_Layer: 2
  m_Name: JSpawner
  m_TagString: Spawner
  m_Icon: {fileID: 0}
  m_NavMeshLayer: 0
  m_StaticEditorFlags: 0
  m_IsActive: 1
--- !u!4 &2754484423639054065
Transform:
  m_ObjectHideFlags: 0
  m_CorrespondingSourceObject: {fileID: 0}
  m_PrefabInstance: {fileID: 0}
  m_PrefabAsset: {fileID: 0}
  m_GameObject: {fileID: 4314654288599744807}
  m_LocalRotation: {x: 0, y: 0, z: 0, w: 1}
  m_LocalPosition: {x: 0, y: 0, z: -10}
  m_LocalScale: {x: 1, y: 1, z: 1}
  m_ConstrainProportionsScale: 0
  m_Children: []
  m_Father: {fileID: 0}
  m_RootOrder: 2
  m_LocalEulerAnglesHint: {x: 0, y: 0, z: 0}
--- !u!114 &8696828161666933252
MonoBehaviour:
  m_ObjectHideFlags: 0
  m_CorrespondingSourceObject: {fileID: 0}
  m_PrefabInstance: {fileID: 0}
  m_PrefabAsset: {fileID: 0}
  m_GameObject: {fileID: 4314654288599744807}
  m_Enabled: 1
  m_EditorHideFlags: 0
  m_Script: {fileID: 11500000, guid: 65c4d31c6ec456a42a6df8b19d1546dd, type: 3}
  m_Name: 
  m_EditorClassIdentifier: 
  canvas: {fileID: 9091032414508826092, guid: 82dcec092cf636647a0ee02f1874daa6, type: 3}
  soJ1: {fileID: 11400000, guid: 8a19aa358c01d7d478be0383888da8f4, type: 2}
  soIJ1: {fileID: 11400000, guid: f3402cba928ab584abbd0eb318e5e37c, type: 2}
  onJ1IndexChange: {fileID: 11400000, guid: 968ae6e95bb53a24a928d03683af636e, type: 2}
  InventoryGUIJ1: {fileID: 4817625714870761339, guid: 06a7a4a1b8a2b0c4396098722e199eaf, type: 3}
  soJ2: {fileID: 11400000, guid: edcc5833ffd3eb64a9860d7aeb937bbc, type: 2}
  soIJ2: {fileID: 11400000, guid: f257d4df46ea0b2418aca0e07b82f7c0, type: 2}
  onJ2IndexChange: {fileID: 11400000, guid: 3106e861d1f3e0b488e0d30fd878d424, type: 2}
  InventoryGUIJ2: {fileID: 4817625714870761339, guid: 033cac71fee076f4ea633642c1d24a50, type: 3}
