%YAML 1.1
%TAG !u! tag:unity3d.com,2011:
--- !u!78 &1
TagManager:
  serializedVersion: 2
  tags:
  - Enemy
  - PlayerAttack
  - EnemyAttack
  - Item
  - Spawner
  - Chest
  layers:
  - Default
  - TransparentFX
  - Ignore Raycast
  - Enemy
  - Water
  - UI
  - Player
  - PlayerAttack
  - 
  - 
  - 
  - 
  - 
  - 
  - 
  - 
  - 
  - 
  - 
  - 
  - 
  - 
  - 
  - 
  - 
  - 
  - 
  - 
  - 
  - 
  - 
  - 
  m_SortingLayers:
  - name: Default
    uniqueID: 0
    locked: 0
