%YAML 1.1
%TAG !u! tag:unity3d.com,2011:
--- !u!114 &11400000
MonoBehaviour:
  m_ObjectHideFlags: 0
  m_CorrespondingSourceObject: {fileID: 0}
  m_PrefabInstance: {fileID: 0}
  m_PrefabAsset: {fileID: 0}
  m_GameObject: {fileID: 0}
  m_Enabled: 1
  m_EditorHideFlags: 0
  m_Script: {fileID: 11500000, guid: fd11a7d0bb8e4cd7937b5199c821c261, type: 3}
  m_Name: J1Inventory
  m_EditorClassIdentifier: 
  onInventoryUpdate: {fileID: 11400000, guid: 468c6e68949d6b34487ecc05fcb0282d, type: 2}
  gun: {fileID: 0}
  m_ItemSlots:
  - Item: {fileID: 11400000, guid: ccf72d0cdf92fae4b8c7bff39d6d7fea, type: 2}
    Amount: 4
  - Item: {fileID: 11400000, guid: 3e3143f1c0057764c8af758c5e4ca11d, type: 2}
    Amount: 12
  - Item: {fileID: 11400000, guid: 74e9cdef7582d6e4db0d224293d6dc17, type: 2}
    Amount: 3
  - Item: {fileID: 11400000, guid: ab1c8a2208dd0e142b4282c692b964b9, type: 2}
    Amount: 11
